<svg width="20" height="20" viewBox="0 0 20 20" fill="none" xmlns="http://www.w3.org/2000/svg">
<path fill-rule="evenodd" clip-rule="evenodd" d="M8.33329 3.33341C7.00721 3.33341 5.73544 3.8602 4.79776 4.79788C3.86008 5.73556 3.33329 7.00733 3.33329 8.33342C3.33329 8.99002 3.46262 9.6402 3.7139 10.2468C3.96517 10.8535 4.33347 11.4047 4.79776 11.8689C5.26205 12.3332 5.81325 12.7015 6.41988 12.9528C7.0265 13.2041 7.67668 13.3334 8.33329 13.3334C8.9899 13.3334 9.64008 13.2041 10.2467 12.9528C10.8533 12.7015 11.4045 12.3332 11.8688 11.8689C12.3331 11.4047 12.7014 10.8535 12.9527 10.2468C13.204 9.6402 13.3333 8.99003 13.3333 8.33342C13.3333 7.00733 12.8065 5.73556 11.8688 4.79788C10.9311 3.8602 9.65938 3.33341 8.33329 3.33341ZM3.61925 3.61937C4.86949 2.36913 6.56518 1.66675 8.33329 1.66675C10.1014 1.66675 11.7971 2.36913 13.0473 3.61937C14.2976 4.86961 15 6.5653 15 8.33342C15 9.20889 14.8275 10.0758 14.4925 10.8846C14.2643 11.4355 13.9637 11.9522 13.5996 12.4212L18.0892 16.9108C18.4147 17.2363 18.4147 17.7639 18.0892 18.0893C17.7638 18.4148 17.2361 18.4148 16.9107 18.0893L12.4211 13.5997C11.952 13.9638 11.4354 14.2644 10.8845 14.4926C10.0757 14.8276 9.20877 15.0001 8.33329 15.0001C7.45781 15.0001 6.59091 14.8276 5.78207 14.4926C4.97323 14.1576 4.2383 13.6665 3.61925 13.0475C3.00019 12.4284 2.50913 11.6935 2.1741 10.8846C1.83906 10.0758 1.66663 9.20889 1.66663 8.33342C1.66663 6.56531 2.369 4.86961 3.61925 3.61937ZM4.99996 8.33342C4.99996 7.87318 5.37306 7.50008 5.83329 7.50008H10.8333C11.2935 7.50008 11.6666 7.87318 11.6666 8.33342C11.6666 8.79365 11.2935 9.16675 10.8333 9.16675H5.83329C5.37306 9.16675 4.99996 8.79365 4.99996 8.33342Z" fill="#334E68"/>
</svg>
