<svg width="34" height="34" viewBox="0 0 34 34" fill="none" xmlns="http://www.w3.org/2000/svg">
<path d="M15.4848 3.36355H24.5757V7.90901H27.606V0.333252H15.4848H12.4545H0.333252V7.90901H3.36355V3.36355H12.4545V30.6363H7.90901V33.6666H12.4545H15.4848H20.0302V30.6363H15.4848V3.36355Z" fill="white"/>
<path d="M27.6063 10.9392H24.576H18.5154V16.2422H21.5457V13.9695H24.576V26.0907H22.3033V29.121H24.576H27.6063H29.879V26.0907H27.6063V13.9695H30.6366V16.2422H33.6669V10.9392H27.6063Z" fill="white"/>
</svg>
